<?xml version="1.0" encoding="UTF-8" standalone="no"?>
<!-- Created with Inkscape (http://www.inkscape.org/) -->

<svg
   xmlns:osb="http://www.openswatchbook.org/uri/2009/osb"
   xmlns:dc="http://purl.org/dc/elements/1.1/"
   xmlns:cc="http://creativecommons.org/ns#"
   xmlns:rdf="http://www.w3.org/1999/02/22-rdf-syntax-ns#"
   xmlns:svg="http://www.w3.org/2000/svg"
   xmlns="http://www.w3.org/2000/svg"
   xmlns:sodipodi="http://sodipodi.sourceforge.net/DTD/sodipodi-0.dtd"
   xmlns:inkscape="http://www.inkscape.org/namespaces/inkscape"
   width="48mm"
   height="48mm"
   viewBox="0 0 48 48"
   version="1.1"
   id="svg8"
   inkscape:version="0.92.3 (2405546, 2018-03-11)"
   sodipodi:docname="icon.svg"
   inkscape:export-filename="/home/landas/Dropbox/Utvikling/gdm3-background/data/icon.svg.png"
   inkscape:export-xdpi="96"
   inkscape:export-ydpi="96">
  <defs
     id="defs2">
    <linearGradient
       id="linearGradient2283"
       osb:paint="solid">
      <stop
         style="stop-color:#729fcf;stop-opacity:1;"
         offset="0"
         id="stop2281" />
    </linearGradient>
  </defs>
  <sodipodi:namedview
     id="base"
     pagecolor="#ffffff"
     bordercolor="#666666"
     borderopacity="1.0"
     inkscape:pageopacity="0.0"
     inkscape:pageshadow="2"
     inkscape:zoom="2"
     inkscape:cx="212.89483"
     inkscape:cy="120.80158"
     inkscape:document-units="px"
     inkscape:current-layer="layer2"
     showgrid="false"
     inkscape:window-width="1920"
     inkscape:window-height="1016"
     inkscape:window-x="0"
     inkscape:window-y="27"
     inkscape:window-maximized="1"
     inkscape:object-paths="true"
     inkscape:object-nodes="true" />
  <metadata
     id="metadata5">
    <rdf:RDF>
      <cc:Work
         rdf:about="">
        <dc:format>image/svg+xml</dc:format>
        <dc:type
           rdf:resource="http://purl.org/dc/dcmitype/StillImage" />
        <dc:title />
      </cc:Work>
    </rdf:RDF>
  </metadata>
  <g
     inkscape:label="Layer 1"
     inkscape:groupmode="layer"
     id="layer1"
     transform="translate(0,-249)">
    <g
       id="g2308"
       transform="translate(-1.0583333)">
      <rect
         transform="matrix(0.9432906,0.33196814,0.33196814,-0.9432906,0,0)"
         ry="0.11787236"
         y="-264.61249"
         x="114.54594"
         height="10.864578"
         width="5.1186256"
         id="rect821"
         style="fill:#000000;fill-opacity:1;stroke:#000000;stroke-width:0.64547086;stroke-linecap:round;stroke-linejoin:round;stroke-miterlimit:4;stroke-dasharray:none;stroke-opacity:1;paint-order:markers fill stroke" />
      <ellipse
         ry="2.9104166"
         rx="11.840104"
         cy="288.79791"
         cx="23.878645"
         id="path2302"
         style="fill:#000000;fill-opacity:1;stroke:#000000;stroke-width:0.60000002;stroke-linecap:round;stroke-linejoin:round;stroke-miterlimit:4;stroke-dasharray:none;stroke-opacity:1;paint-order:markers fill stroke" />
    </g>
    <g
       id="g2320">
      <rect
         style="fill:#729fcf;fill-opacity:1;stroke:#000000;stroke-width:2.11871672;stroke-linecap:round;stroke-linejoin:round;stroke-miterlimit:4;stroke-dasharray:none;stroke-opacity:1;paint-order:markers fill stroke"
         id="rect2324"
         width="45.580868"
         height="28.066204"
         x="1.2342513"
         y="253.58734"
         ry="0" />
      <rect
         ry="0"
         y="253.58734"
         x="1.2342513"
         height="28.066204"
         width="45.580868"
         id="rect5069"
         style="fill:#729fcf;fill-opacity:1;stroke:none;stroke-width:2.11871672;stroke-linecap:round;stroke-linejoin:round;stroke-miterlimit:4;stroke-dasharray:none;stroke-opacity:1;paint-order:markers fill stroke" />
      <path
         style="fill:#72accf;fill-opacity:1;fill-rule:evenodd;stroke:none;stroke-width:2.11871672;stroke-linecap:butt;stroke-linejoin:miter;stroke-miterlimit:4;stroke-dasharray:none;stroke-opacity:1"
         d="M 1.2342513,281.65356 46.815118,253.58735 v 28.06621 z"
         id="path2322"
         inkscape:connector-curvature="0"
         sodipodi:nodetypes="cccc" />
    </g>
    <g
       inkscape:groupmode="layer"
       id="layer2"
       inkscape:label="Layer 2">
      <rect
         style="fill:#2e3436;fill-opacity:1;stroke:none;stroke-width:2.11666656;stroke-linecap:round;stroke-linejoin:round;stroke-miterlimit:4;stroke-dasharray:none;stroke-opacity:1;paint-order:markers fill stroke"
         id="rect2327"
         width="21.79583"
         height="11.693041"
         x="12.569448"
         y="262.04758"
         ry="0.11787241" />
      <rect
         style="fill:#ffffff;fill-opacity:0.60851063;stroke:none;stroke-width:1.71586192;stroke-linecap:round;stroke-linejoin:round;stroke-miterlimit:4;stroke-dasharray:none;stroke-opacity:1;paint-order:markers fill stroke"
         id="rect2329"
         width="13.189751"
         height="2.1515198"
         x="19.822607"
         y="265.66568"
         ry="0.077459015" />
      <rect
         ry="0.077459015"
         y="268.75262"
         x="19.822607"
         height="2.1515198"
         width="13.189751"
         id="rect2331"
         style="fill:#ffffff;fill-opacity:0.60851063;stroke:none;stroke-width:1.71586192;stroke-linecap:round;stroke-linejoin:round;stroke-miterlimit:4;stroke-dasharray:none;stroke-opacity:1;paint-order:markers fill stroke" />
      <path
         style="fill:#ffffff;fill-opacity:0.60851063;stroke:none;stroke-width:2.11666656;stroke-linecap:round;stroke-linejoin:round;stroke-miterlimit:4;stroke-dasharray:none;stroke-opacity:1;paint-order:markers fill stroke"
         d="m 16.042987,265.6187 a 1.5434815,1.5902536 0 0 0 -1.543575,1.5906 1.5434815,1.5902536 0 0 0 0.705383,1.33377 c -0.177265,0.0981 -0.359821,0.22905 -0.548287,0.39997 -0.684506,0.53714 -1.069543,1.29809 -1.069185,2.03709 h 4.981091 c 0.05467,-0.72958 -0.494428,-1.51368 -1.188041,-2.08153 -0.167866,-0.13718 -0.339255,-0.25107 -0.513664,-0.34571 a 1.5434815,1.5902536 0 0 0 0.719336,-1.34359 1.5434815,1.5902536 0 0 0 -1.543058,-1.5906 z"
         id="path2333"
         inkscape:connector-curvature="0" />
    </g>
  </g>
</svg>
